﻿[
  {
    "symbol": "$PAC",
    "name": "PACCoin",
    "isFiat": false,
    "depositsAllowed": true,
    "depositConfirmationCount": 8,
    "minDeposit": 0.0,
    "withdrawalsAllowed": true,
    "withdrawalPrecision": 8,
    "minWithdrawal": 4.0,
    "maxWithdrawal": null,
    "flatWithdrawalFee": 2.0,
    "isDelisted": false
  },
  {
    "symbol": "2GIVE",
    "name": "2Give",
    "isFiat": false,
    "depositsAllowed": false,
    "depositConfirmationCount": 8,
    "minDeposit": 0.0,
    "withdrawalsAllowed": false,
    "withdrawalPrecision": 8,
    "minWithdrawal": 2.0,
    "maxWithdrawal": null,
    "flatWithdrawalFee": null,
    "isDelisted": true
  }
]
